{
  "modelPackage": "be.glever.xmlers.rest.api.generated.model",
  "apiPackage": "be.glever.xmlers.rest.api.generated.api",
  "sourceFolder": "api",
  "dateLibrary": "java8",
  "generatePom": "false",
  "interfaceOnly": "true",
  "implFolder": "build/ignored"
}
